{
    "status_code": 200,
    "data": {
        "media": [
            {
                "id": "m:32550892",
                "type": "photo",
                "url_template": "https://media-cdn.sygictraveldata.com/media/{size}/612664395a40232133447d33247d383332353530383932",
                "url": "https://media-cdn.sygictraveldata.com/media/612664395a40232133447d33247d383332353530383932.jpg",
                "location": null,
                "original": {
                    "width": 2048,
                    "height": 1365,
                    "size": null
                },
                "created_at": "2016-11-03T13:53:20+0000",
                "created_by": "53d8a9428f8ff",
                "attribution": {
                    "title": "London",
                    "title_url": null,
                    "author": null,
                    "author_url": null,
                    "other": null,
                    "license": "All rights reserved",
                    "license_url": null
                },
                "source": {
                    "name": null,
                    "external_id": null,
                    "provider": "user_upload"
                },
                "suitability": [
                    "square",
                    "landscape"
                ]
            },
            {
                "id": "m:20366301",
                "type": "photo",
                "url_template": "https://media-cdn.sygictraveldata.com/media/{size}/612664395a40232133447d33247d383230333636333031",
                "url": "https://media-cdn.sygictraveldata.com/media/612664395a40232133447d33247d383230333636333031.jpg",
                "location": null,
                "original": {
                    "width": 1986,
                    "height": 1210,
                    "size": null
                },
                "created_at": "2016-05-14T18:39:11+0000",
                "created_by": "56d5ae5e07c79",
                "attribution": {
                    "title": "London",
                    "title_url": "https://www.flickr.com/photos/132084522@N05/16967984348",
                    "author": "Sam valadi",
                    "author_url": "https://www.flickr.com/photos/132084522@N05/",
                    "other": null,
                    "license": "CC-BY",
                    "license_url": "http://creativecommons.org/licenses/by/4.0/"
                },
                "source": {
                    "name": null,
                    "external_id": null,
                    "provider": "user_upload"
                },
                "suitability": []
            },
            {
                "id": "m:20366302",
                "type": "photo",
                "url_template": "https://media-cdn.sygictraveldata.com/media/{size}/612664395a40232133447d33247d383230333636333032",
                "url": "https://media-cdn.sygictraveldata.com/media/612664395a40232133447d33247d383230333636333032.jpg",
                "location": {
                    "lat": -0.126826,
                    "lng": 51.501189
                },
                "original": {
                    "width": 1712,
                    "height": 2288,
                    "size": null
                },
                "created_at": "2016-05-14T18:43:08+0000",
                "created_by": "56d5ae5e07c79",
                "attribution": {
                    "title": "Classic red telephone box and London double-decker bus in front of the Houses of Parliament clocktower. This particular phone box was, however, erected here only in around 1990. The bus is London United VLE45 (reg. PO54 OOG).",
                    "title_url": "https://commons.wikimedia.org/wiki/File:London_Big_Ben_Phone_box.jpg",
                    "author": ", wiki+spam@eindruckschinderdomain.de",
                    "author_url": null,
                    "other": null,
                    "license": "CC BY-SA 2.5",
                    "license_url": "http://creativecommons.org/licenses/by-sa/2.5"
                },
                "source": {
                    "name": "Wikimedia Commons",
                    "external_id": null,
                    "provider": "wikipedia"
                },
                "suitability": []
            },
            {
                "id": "m:1675954",
                "type": "photo",
                "url_template": "https://media-cdn.sygictraveldata.com/media/{size}/612664395a40232133447d33247d3831363735393534",
                "url": "https://media-cdn.sygictraveldata.com/media/612664395a40232133447d33247d3831363735393534.jpg",
                "location": {
                    "lat": -0.125741,
                    "lng": 51.501055
                },
                "original": {
                    "width": 2112,
                    "height": 2816,
                    "size": null
                },
                "created_at": "2015-03-17T20:03:12+0000",
                "created_by": null,
                "attribution": {
                    "title": "View from Bridge street",
                    "title_url": "http://commons.wikimedia.org/wiki/File:Big_Ben_-_London_(2341410900).jpg",
                    "author": "Cristian Bortes",
                    "author_url": "http://www.flickr.com/people/79653482@N00",
                    "other": null,
                    "license": "CC BY 2.0",
                    "license_url": "http://creativecommons.org/licenses/by/2.0"
                },
                "source": {
                    "name": "Wikimedia Commons",
                    "external_id": null,
                    "provider": "wikipedia"
                },
                "suitability": [
                    "portrait"
                ]
            },
            {
                "id": "m:42166827",
                "type": "photo",
                "url_template": "https://media-cdn.sygictraveldata.com/media/{size}/612664395a40232133447d33247d383432313636383237",
                "url": "https://media-cdn.sygictraveldata.com/media/612664395a40232133447d33247d383432313636383237.jpg",
                "location": null,
                "original": {
                    "width": 3072,
                    "height": 1887,
                    "size": null
                },
                "created_at": "2017-08-21T12:41:18+0000",
                "created_by": "53d8a9428f8ff",
                "attribution": {
                    "title": "View of the City Hall (round building on the left), More London office complex and The Shard skyscraper, at the south bank of the Thames, Southwark…",
                    "title_url": "https://commons.wikimedia.org/wiki/File:Ayuntamiento_y_Shard,_Londres,_Inglaterra,_2014-08-11,_DD_076.JPG",
                    "author": "Diego Delso",
                    "author_url": "https://www.wikidata.org/wiki/Q28147777",
                    "other": null,
                    "license": "CC BY-SA 4.0",
                    "license_url": "http://creativecommons.org/licenses/by-sa/4.0"
                },
                "source": {
                    "name": "Wikimedia Commons",
                    "external_id": null,
                    "provider": "wikipedia"
                },
                "suitability": []
            },
            {
                "id": "m:42166828",
                "type": "photo",
                "url_template": "https://media-cdn.sygictraveldata.com/media/{size}/612664395a40232133447d33247d383432313636383238",
                "url": "https://media-cdn.sygictraveldata.com/media/612664395a40232133447d33247d383432313636383238.jpg",
                "location": {
                    "lat": -0.118778,
                    "lng": 51.50325
                },
                "original": {
                    "width": 2100,
                    "height": 1400,
                    "size": null
                },
                "created_at": "2017-08-21T12:41:21+0000",
                "created_by": "53d8a9428f8ff",
                "attribution": {
                    "title": "This photo is of the London Eye on the 7th of April 2006 as viewed from the rear. It is a 6 second exposure and taken with a Canon 5D  and 24-105mm f…",
                    "title_url": "https://commons.wikimedia.org/wiki/File:London_Eye_Twilight_April_2006.jpg",
                    "author": "Diliff",
                    "author_url": "http://commons.wikimedia.org/wiki/User:Diliff",
                    "other": null,
                    "license": "CC BY 2.5",
                    "license_url": "http://creativecommons.org/licenses/by/2.5"
                },
                "source": {
                    "name": "Wikimedia Commons",
                    "external_id": null,
                    "provider": "wikipedia"
                },
                "suitability": []
            },
            {
                "id": "m:42166830",
                "type": "photo",
                "url_template": "https://media-cdn.sygictraveldata.com/media/{size}/612664395a40232133447d33247d383432313636383330",
                "url": "https://media-cdn.sygictraveldata.com/media/612664395a40232133447d33247d383432313636383330.jpg",
                "location": {
                    "lat": -0.0786,
                    "lng": 51.504728
                },
                "original": {
                    "width": 3072,
                    "height": 1728,
                    "size": null
                },
                "created_at": "2017-08-21T12:41:24+0000",
                "created_by": "53d8a9428f8ff",
                "attribution": {
                    "title": "Tower Bridge viewed from the balcony at City Hall. The skyscrapers of Canary Wharf are visible.",
                    "title_url": "https://commons.wikimedia.org/wiki/File:Tower_Bridge_from_London_City_Hall_2015.jpg",
                    "author": "Colin",
                    "author_url": "http://commons.wikimedia.org/wiki/User:Colin",
                    "other": null,
                    "license": "CC BY-SA 4.0",
                    "license_url": "http://creativecommons.org/licenses/by-sa/4.0"
                },
                "source": {
                    "name": "Wikimedia Commons",
                    "external_id": null,
                    "provider": "wikipedia"
                },
                "suitability": []
            },
            {
                "id": "m:42353286",
                "type": "photo",
                "url_template": "https://media-cdn.sygictraveldata.com/media/{size}/612664395a40232133447d33247d383432333533323836",
                "url": "https://media-cdn.sygictraveldata.com/media/612664395a40232133447d33247d383432333533323836.jpg",
                "location": null,
                "original": {
                    "width": 3072,
                    "height": 2048,
                    "size": null
                },
                "created_at": "2017-09-04T14:42:29+0000",
                "created_by": "55792a4fa7773",
                "attribution": {
                    "title": "London",
                    "title_url": null,
                    "author": "Sygic Traveler",
                    "author_url": "https://travel.sygic.com",
                    "other": null,
                    "license": "All rights reserved",
                    "license_url": null
                },
                "source": {
                    "name": null,
                    "external_id": null,
                    "provider": "user_upload"
                },
                "suitability": []
            },
            {
                "id": "m:42353287",
                "type": "photo",
                "url_template": "https://media-cdn.sygictraveldata.com/media/{size}/612664395a40232133447d33247d383432333533323837",
                "url": "https://media-cdn.sygictraveldata.com/media/612664395a40232133447d33247d383432333533323837.jpg",
                "location": null,
                "original": {
                    "width": 3072,
                    "height": 2048,
                    "size": null
                },
                "created_at": "2017-09-04T14:42:57+0000",
                "created_by": "55792a4fa7773",
                "attribution": {
                    "title": "London",
                    "title_url": null,
                    "author": "Sygic Traveler",
                    "author_url": "https://travel.sygic.com",
                    "other": null,
                    "license": "All rights reserved",
                    "license_url": null
                },
                "source": {
                    "name": null,
                    "external_id": null,
                    "provider": "user_upload"
                },
                "suitability": []
            },
            {
                "id": "m:42353289",
                "type": "photo",
                "url_template": "https://media-cdn.sygictraveldata.com/media/{size}/612664395a40232133447d33247d383432333533323839",
                "url": "https://media-cdn.sygictraveldata.com/media/612664395a40232133447d33247d383432333533323839.jpg",
                "location": null,
                "original": {
                    "width": 3072,
                    "height": 2048,
                    "size": null
                },
                "created_at": "2017-09-04T14:43:31+0000",
                "created_by": "55792a4fa7773",
                "attribution": {
                    "title": "London",
                    "title_url": null,
                    "author": "Sygic Traveler",
                    "author_url": "https://travel.sygic.com",
                    "other": null,
                    "license": "All rights reserved",
                    "license_url": null
                },
                "source": {
                    "name": null,
                    "external_id": null,
                    "provider": "user_upload"
                },
                "suitability": []
            },
            {
                "id": "m:42353293",
                "type": "photo",
                "url_template": "https://media-cdn.sygictraveldata.com/media/{size}/612664395a40232133447d33247d383432333533323933",
                "url": "https://media-cdn.sygictraveldata.com/media/612664395a40232133447d33247d383432333533323933.jpg",
                "location": null,
                "original": {
                    "width": 3072,
                    "height": 2048,
                    "size": null
                },
                "created_at": "2017-09-04T14:46:34+0000",
                "created_by": "55792a4fa7773",
                "attribution": {
                    "title": "London",
                    "title_url": null,
                    "author": "Sygic Traveler",
                    "author_url": "https://travel.sygic.com",
                    "other": null,
                    "license": "All rights reserved",
                    "license_url": null
                },
                "source": {
                    "name": null,
                    "external_id": null,
                    "provider": "user_upload"
                },
                "suitability": []
            },
            {
                "id": "m:84927877",
                "type": "photo",
                "url_template": "https://media-cdn.sygictraveldata.com/media/{size}/612664395a40232133447d33247d383834393237383737",
                "url": "https://media-cdn.sygictraveldata.com/media/612664395a40232133447d33247d383834393237383737.jpg",
                "location": null,
                "original": {
                    "width": 3072,
                    "height": 1887,
                    "size": null
                },
                "created_at": "2018-07-28T18:55:11+0000",
                "created_by": "5b5ab4c439b90",
                "attribution": {
                    "title": "View of the City Hall (round building on the left), More London office complex and The Shard skyscraper, at the south bank of the Thames, Southwark…",
                    "title_url": "https://commons.wikimedia.org/wiki/File:Ayuntamiento_y_Shard,_Londres,_Inglaterra,_2014-08-11,_DD_076.JPG",
                    "author": "Diego Delso",
                    "author_url": "https://www.wikidata.org/wiki/Q28147777",
                    "other": null,
                    "license": "CC BY-SA 4.0",
                    "license_url": "https://creativecommons.org/licenses/by-sa/4.0"
                },
                "source": {
                    "name": "Wikimedia Commons",
                    "external_id": null,
                    "provider": "wikipedia"
                },
                "suitability": []
            },
            {
                "id": "m:56712439",
                "type": "video360",
                "url_template": "https://media-cdn.sygictraveldata.com/media/{size}/612664395a40232133447d33247d383536373132343339",
                "url": "https://media-cdn.sygictraveldata.com/media/612664395a40232133447d33247d383536373132343339.mp4",
                "location": null,
                "original": {
                    "width": null,
                    "height": null,
                    "size": null
                },
                "created_at": "2018-06-07T09:04:44+0000",
                "created_by": "575a599aed3a2",
                "attribution": {
                    "title": "One Day in London",
                    "title_url": null,
                    "author": "Sygic Traveler",
                    "author_url": "http://travel.sygic.com",
                    "other": null,
                    "license": "All rights reserved",
                    "license_url": null
                },
                "source": {
                    "name": null,
                    "external_id": null,
                    "provider": "user_upload"
                },
                "suitability": []
            },
            {
                "id": "m:84927831",
                "type": "photo",
                "url_template": "https://media-cdn.sygictraveldata.com/media/{size}/612664395a40232133447d33247d383834393237383331",
                "url": "https://media-cdn.sygictraveldata.com/media/612664395a40232133447d33247d383834393237383331.jpg",
                "location": {
                    "lat": -0.140719,
                    "lng": 51.502726
                },
                "original": {
                    "width": 3072,
                    "height": 2011,
                    "size": null
                },
                "created_at": "2018-07-28T16:05:28+0000",
                "created_by": "5b5ab4c439b90",
                "attribution": {
                    "title": "Buckingham Palace in London, England. taken by myself with a Canon 5D and 24-105mm f/4L IS lens.",
                    "title_url": "https://commons.wikimedia.org/wiki/File:Buckingham_Palace,_London_-_April_2009.jpg",
                    "author": "Diliff",
                    "author_url": "http://commons.wikimedia.org/wiki/User:Diliff",
                    "other": null,
                    "license": "CC BY-SA 3.0",
                    "license_url": "https://creativecommons.org/licenses/by-sa/3.0"
                },
                "source": {
                    "name": "Wikimedia Commons",
                    "external_id": null,
                    "provider": "wikipedia"
                },
                "suitability": []
            },
            {
                "id": "m:84927830",
                "type": "photo",
                "url_template": "https://media-cdn.sygictraveldata.com/media/{size}/612664395a40232133447d33247d383834393237383330",
                "url": "https://media-cdn.sygictraveldata.com/media/612664395a40232133447d33247d383834393237383330.jpg",
                "location": {
                    "lat": -0.129417,
                    "lng": 51.506443
                },
                "original": {
                    "width": 3072,
                    "height": 1486,
                    "size": null
                },
                "created_at": "2018-07-28T16:01:00+0000",
                "created_by": "5b5ab4c439b90",
                "attribution": {
                    "title": "Admiralty Arch during the blue hour, as viewed from the Mall in London, England.",
                    "title_url": "https://commons.wikimedia.org/wiki/File:Admiralty_Arch_at_Dusk,_London,_UK_-_Diliff.jpg",
                    "author": "Diliff",
                    "author_url": "http://commons.wikimedia.org/wiki/User:Diliff",
                    "other": null,
                    "license": "CC BY-SA 3.0",
                    "license_url": "https://creativecommons.org/licenses/by-sa/3.0"
                },
                "source": {
                    "name": "Wikimedia Commons",
                    "external_id": null,
                    "provider": "wikipedia"
                },
                "suitability": []
            },
            {
                "id": "m:32550893",
                "type": "photo",
                "url_template": "https://media-cdn.sygictraveldata.com/media/{size}/612664395a40232133447d33247d383332353530383933",
                "url": "https://media-cdn.sygictraveldata.com/media/612664395a40232133447d33247d383332353530383933.jpg",
                "location": {
                    "lat": -0.122438,
                    "lng": 51.500994
                },
                "original": {
                    "width": 2048,
                    "height": 3072,
                    "size": null
                },
                "created_at": "2016-11-03T13:54:45+0000",
                "created_by": "53d8a9428f8ff",
                "attribution": {
                    "title": "Detail of the Clock Tower (usually referred to as Big Ben) of the Palace of Westminster, London, England, United Kingdom.",
                    "title_url": "https://commons.wikimedia.org/wiki/File:Big_Ben_-_02.jpg",
                    "author": "Carlos Delgado",
                    "author_url": "http://commons.wikimedia.org/wiki/User:Kadellar",
                    "other": null,
                    "license": "CC BY-SA 3.0",
                    "license_url": "http://creativecommons.org/licenses/by-sa/3.0"
                },
                "source": {
                    "name": "Wikimedia Commons",
                    "external_id": null,
                    "provider": "wikipedia"
                },
                "suitability": []
            }
        ]
    },
    "server_timestamp": "2019-04-12T05:58:53+00:00"
}